<?xml version="1.0" encoding="UTF-8"?>
<testsuite xmlns:xsi="http://www.w3.org/2001/XMLSchema-instance" xsi:noNamespaceSchemaLocation="https://maven.apache.org/surefire/maven-surefire-plugin/xsd/surefire-test-report-3.0.xsd" version="3.0" name="TestSuite" time="9.056" tests="24" errors="0" skipped="0" failures="0">
  <properties>
    <property name="sun.desktop" value="windows"/>
    <property name="awt.toolkit" value="sun.awt.windows.WToolkit"/>
    <property name="file.encoding.pkg" value="sun.io"/>
    <property name="java.specification.version" value="1.8"/>
    <property name="sun.cpu.isalist" value="amd64"/>
    <property name="sun.jnu.encoding" value="Cp1252"/>
    <property name="java.class.path" value="E:\Photo-Framework\API-Automation\target\test-classes;E:\Photo-Framework\API-Automation\target\classes;C:\Users\Pintu\.m2\repository\io\rest-assured\rest-assured\5.1.1\rest-assured-5.1.1.jar;C:\Users\Pintu\.m2\repository\org\apache\groovy\groovy\4.0.1\groovy-4.0.1.jar;C:\Users\Pintu\.m2\repository\org\apache\groovy\groovy-xml\4.0.1\groovy-xml-4.0.1.jar;C:\Users\Pintu\.m2\repository\org\apache\httpcomponents\httpclient\4.5.13\httpclient-4.5.13.jar;C:\Users\Pintu\.m2\repository\org\apache\httpcomponents\httpcore\4.4.13\httpcore-4.4.13.jar;C:\Users\Pintu\.m2\repository\commons-logging\commons-logging\1.2\commons-logging-1.2.jar;C:\Users\Pintu\.m2\repository\org\apache\httpcomponents\httpmime\4.5.13\httpmime-4.5.13.jar;C:\Users\Pintu\.m2\repository\org\hamcrest\hamcrest\2.1\hamcrest-2.1.jar;C:\Users\Pintu\.m2\repository\org\ccil\cowan\tagsoup\tagsoup\1.2.1\tagsoup-1.2.1.jar;C:\Users\Pintu\.m2\repository\io\rest-assured\xml-path\5.1.1\xml-path-5.1.1.jar;C:\Users\Pintu\.m2\repository\org\testng\testng\7.4.0\testng-7.4.0.jar;C:\Users\Pintu\.m2\repository\com\beust\jcommander\1.78\jcommander-1.78.jar;C:\Users\Pintu\.m2\repository\org\webjars\jquery\3.5.1\jquery-3.5.1.jar;C:\Users\Pintu\.m2\repository\com\googlecode\json-simple\json-simple\1.1.1\json-simple-1.1.1.jar;C:\Users\Pintu\.m2\repository\junit\junit\4.10\junit-4.10.jar;C:\Users\Pintu\.m2\repository\org\hamcrest\hamcrest-core\1.1\hamcrest-core-1.1.jar;C:\Users\Pintu\.m2\repository\org\apache\poi\poi\5.2.2\poi-5.2.2.jar;C:\Users\Pintu\.m2\repository\commons-codec\commons-codec\1.15\commons-codec-1.15.jar;C:\Users\Pintu\.m2\repository\org\apache\commons\commons-collections4\4.4\commons-collections4-4.4.jar;C:\Users\Pintu\.m2\repository\org\apache\commons\commons-math3\3.6.1\commons-math3-3.6.1.jar;C:\Users\Pintu\.m2\repository\commons-io\commons-io\2.11.0\commons-io-2.11.0.jar;C:\Users\Pintu\.m2\repository\com\zaxxer\SparseBitSet\1.2\SparseBitSet-1.2.jar;C:\Users\Pintu\.m2\repository\org\apache\logging\log4j\log4j-api\2.17.2\log4j-api-2.17.2.jar;C:\Users\Pintu\.m2\repository\org\apache\commons\commons-lang3\3.12.0\commons-lang3-3.12.0.jar;C:\Users\Pintu\.m2\repository\org\apache\poi\poi-ooxml\5.2.2\poi-ooxml-5.2.2.jar;C:\Users\Pintu\.m2\repository\org\apache\poi\poi-ooxml-lite\5.2.2\poi-ooxml-lite-5.2.2.jar;C:\Users\Pintu\.m2\repository\org\apache\xmlbeans\xmlbeans\5.0.3\xmlbeans-5.0.3.jar;C:\Users\Pintu\.m2\repository\xml-apis\xml-apis\1.4.01\xml-apis-1.4.01.jar;C:\Users\Pintu\.m2\repository\org\apache\commons\commons-compress\1.21\commons-compress-1.21.jar;C:\Users\Pintu\.m2\repository\com\github\virtuald\curvesapi\1.07\curvesapi-1.07.jar;C:\Users\Pintu\.m2\repository\log4j\log4j\1.2.17\log4j-1.2.17.jar;C:\Users\Pintu\.m2\repository\io\rest-assured\json-path\5.2.0\json-path-5.2.0.jar;C:\Users\Pintu\.m2\repository\org\apache\groovy\groovy-json\4.0.1\groovy-json-4.0.1.jar;C:\Users\Pintu\.m2\repository\io\rest-assured\rest-assured-common\5.2.0\rest-assured-common-5.2.0.jar;C:\Users\Pintu\.m2\repository\io\rest-assured\json-schema-validator\5.2.0\json-schema-validator-5.2.0.jar;C:\Users\Pintu\.m2\repository\com\github\java-json-tools\json-schema-validator\2.2.14\json-schema-validator-2.2.14.jar;C:\Users\Pintu\.m2\repository\com\google\guava\guava\28.2-android\guava-28.2-android.jar;C:\Users\Pintu\.m2\repository\com\google\guava\failureaccess\1.0.1\failureaccess-1.0.1.jar;C:\Users\Pintu\.m2\repository\com\google\guava\listenablefuture\9999.0-empty-to-avoid-conflict-with-guava\listenablefuture-9999.0-empty-to-avoid-conflict-with-guava.jar;C:\Users\Pintu\.m2\repository\org\checkerframework\checker-compat-qual\2.5.5\checker-compat-qual-2.5.5.jar;C:\Users\Pintu\.m2\repository\com\google\errorprone\error_prone_annotations\2.3.4\error_prone_annotations-2.3.4.jar;C:\Users\Pintu\.m2\repository\com\google\j2objc\j2objc-annotations\1.3\j2objc-annotations-1.3.jar;C:\Users\Pintu\.m2\repository\com\github\java-json-tools\jackson-coreutils-equivalence\1.0\jackson-coreutils-equivalence-1.0.jar;C:\Users\Pintu\.m2\repository\com\fasterxml\jackson\core\jackson-databind\2.11.0\jackson-databind-2.11.0.jar;C:\Users\Pintu\.m2\repository\com\fasterxml\jackson\core\jackson-annotations\2.11.0\jackson-annotations-2.11.0.jar;C:\Users\Pintu\.m2\repository\com\fasterxml\jackson\core\jackson-core\2.11.0\jackson-core-2.11.0.jar;C:\Users\Pintu\.m2\repository\com\github\java-json-tools\jackson-coreutils\2.0\jackson-coreutils-2.0.jar;C:\Users\Pintu\.m2\repository\com\github\java-json-tools\msg-simple\1.2\msg-simple-1.2.jar;C:\Users\Pintu\.m2\repository\com\github\java-json-tools\btf\1.3\btf-1.3.jar;C:\Users\Pintu\.m2\repository\com\github\java-json-tools\json-schema-core\1.2.14\json-schema-core-1.2.14.jar;C:\Users\Pintu\.m2\repository\com\github\java-json-tools\uri-template\0.10\uri-template-0.10.jar;C:\Users\Pintu\.m2\repository\org\mozilla\rhino\1.7.7.2\rhino-1.7.7.2.jar;C:\Users\Pintu\.m2\repository\com\sun\mail\mailapi\1.6.2\mailapi-1.6.2.jar;C:\Users\Pintu\.m2\repository\joda-time\joda-time\2.10.5\joda-time-2.10.5.jar;C:\Users\Pintu\.m2\repository\com\googlecode\libphonenumber\libphonenumber\8.11.1\libphonenumber-8.11.1.jar;C:\Users\Pintu\.m2\repository\com\google\code\findbugs\jsr305\3.0.2\jsr305-3.0.2.jar;C:\Users\Pintu\.m2\repository\net\sf\jopt-simple\jopt-simple\5.0.4\jopt-simple-5.0.4.jar;C:\Users\Pintu\.m2\repository\com\aventstack\extentreports\3.1.2\extentreports-3.1.2.jar;C:\Users\Pintu\.m2\repository\org\freemarker\freemarker\2.3.23\freemarker-2.3.23.jar;C:\Users\Pintu\.m2\repository\org\mongodb\mongodb-driver\3.3.0\mongodb-driver-3.3.0.jar;C:\Users\Pintu\.m2\repository\org\mongodb\bson\3.3.0\bson-3.3.0.jar;C:\Users\Pintu\.m2\repository\org\mongodb\mongodb-driver-core\3.3.0\mongodb-driver-core-3.3.0.jar;C:\Users\Pintu\.m2\repository\org\jsoup\jsoup\1.9.2\jsoup-1.9.2.jar;C:\Users\Pintu\.m2\repository\com\google\code\gson\gson\2.8.0\gson-2.8.0.jar;"/>
    <property name="java.vm.vendor" value="Oracle Corporation"/>
    <property name="sun.arch.data.model" value="64"/>
    <property name="user.variant" value=""/>
    <property name="java.vendor.url" value="http://java.oracle.com/"/>
    <property name="user.timezone" value="Asia/Calcutta"/>
    <property name="java.vm.specification.version" value="1.8"/>
    <property name="os.name" value="Windows 7"/>
    <property name="user.country" value="US"/>
    <property name="sun.java.launcher" value="SUN_STANDARD"/>
    <property name="sun.boot.library.path" value="E:\Java\jdk1.8.0_241\jre\bin"/>
    <property name="sun.java.command" value="C:\Windows\Temp\surefire9131419753492834217\surefirebooter-20221019164921784_3.jar C:\Windows\Temp\surefire9131419753492834217 2022-10-19T16-49-20_018-jvmRun1 surefire-20221019164921784_1tmp surefire_0-20221019164921784_2tmp"/>
    <property name="surefire.test.class.path" value="E:\Photo-Framework\API-Automation\target\test-classes;E:\Photo-Framework\API-Automation\target\classes;C:\Users\Pintu\.m2\repository\io\rest-assured\rest-assured\5.1.1\rest-assured-5.1.1.jar;C:\Users\Pintu\.m2\repository\org\apache\groovy\groovy\4.0.1\groovy-4.0.1.jar;C:\Users\Pintu\.m2\repository\org\apache\groovy\groovy-xml\4.0.1\groovy-xml-4.0.1.jar;C:\Users\Pintu\.m2\repository\org\apache\httpcomponents\httpclient\4.5.13\httpclient-4.5.13.jar;C:\Users\Pintu\.m2\repository\org\apache\httpcomponents\httpcore\4.4.13\httpcore-4.4.13.jar;C:\Users\Pintu\.m2\repository\commons-logging\commons-logging\1.2\commons-logging-1.2.jar;C:\Users\Pintu\.m2\repository\org\apache\httpcomponents\httpmime\4.5.13\httpmime-4.5.13.jar;C:\Users\Pintu\.m2\repository\org\hamcrest\hamcrest\2.1\hamcrest-2.1.jar;C:\Users\Pintu\.m2\repository\org\ccil\cowan\tagsoup\tagsoup\1.2.1\tagsoup-1.2.1.jar;C:\Users\Pintu\.m2\repository\io\rest-assured\xml-path\5.1.1\xml-path-5.1.1.jar;C:\Users\Pintu\.m2\repository\org\testng\testng\7.4.0\testng-7.4.0.jar;C:\Users\Pintu\.m2\repository\com\beust\jcommander\1.78\jcommander-1.78.jar;C:\Users\Pintu\.m2\repository\org\webjars\jquery\3.5.1\jquery-3.5.1.jar;C:\Users\Pintu\.m2\repository\com\googlecode\json-simple\json-simple\1.1.1\json-simple-1.1.1.jar;C:\Users\Pintu\.m2\repository\junit\junit\4.10\junit-4.10.jar;C:\Users\Pintu\.m2\repository\org\hamcrest\hamcrest-core\1.1\hamcrest-core-1.1.jar;C:\Users\Pintu\.m2\repository\org\apache\poi\poi\5.2.2\poi-5.2.2.jar;C:\Users\Pintu\.m2\repository\commons-codec\commons-codec\1.15\commons-codec-1.15.jar;C:\Users\Pintu\.m2\repository\org\apache\commons\commons-collections4\4.4\commons-collections4-4.4.jar;C:\Users\Pintu\.m2\repository\org\apache\commons\commons-math3\3.6.1\commons-math3-3.6.1.jar;C:\Users\Pintu\.m2\repository\commons-io\commons-io\2.11.0\commons-io-2.11.0.jar;C:\Users\Pintu\.m2\repository\com\zaxxer\SparseBitSet\1.2\SparseBitSet-1.2.jar;C:\Users\Pintu\.m2\repository\org\apache\logging\log4j\log4j-api\2.17.2\log4j-api-2.17.2.jar;C:\Users\Pintu\.m2\repository\org\apache\commons\commons-lang3\3.12.0\commons-lang3-3.12.0.jar;C:\Users\Pintu\.m2\repository\org\apache\poi\poi-ooxml\5.2.2\poi-ooxml-5.2.2.jar;C:\Users\Pintu\.m2\repository\org\apache\poi\poi-ooxml-lite\5.2.2\poi-ooxml-lite-5.2.2.jar;C:\Users\Pintu\.m2\repository\org\apache\xmlbeans\xmlbeans\5.0.3\xmlbeans-5.0.3.jar;C:\Users\Pintu\.m2\repository\xml-apis\xml-apis\1.4.01\xml-apis-1.4.01.jar;C:\Users\Pintu\.m2\repository\org\apache\commons\commons-compress\1.21\commons-compress-1.21.jar;C:\Users\Pintu\.m2\repository\com\github\virtuald\curvesapi\1.07\curvesapi-1.07.jar;C:\Users\Pintu\.m2\repository\log4j\log4j\1.2.17\log4j-1.2.17.jar;C:\Users\Pintu\.m2\repository\io\rest-assured\json-path\5.2.0\json-path-5.2.0.jar;C:\Users\Pintu\.m2\repository\org\apache\groovy\groovy-json\4.0.1\groovy-json-4.0.1.jar;C:\Users\Pintu\.m2\repository\io\rest-assured\rest-assured-common\5.2.0\rest-assured-common-5.2.0.jar;C:\Users\Pintu\.m2\repository\io\rest-assured\json-schema-validator\5.2.0\json-schema-validator-5.2.0.jar;C:\Users\Pintu\.m2\repository\com\github\java-json-tools\json-schema-validator\2.2.14\json-schema-validator-2.2.14.jar;C:\Users\Pintu\.m2\repository\com\google\guava\guava\28.2-android\guava-28.2-android.jar;C:\Users\Pintu\.m2\repository\com\google\guava\failureaccess\1.0.1\failureaccess-1.0.1.jar;C:\Users\Pintu\.m2\repository\com\google\guava\listenablefuture\9999.0-empty-to-avoid-conflict-with-guava\listenablefuture-9999.0-empty-to-avoid-conflict-with-guava.jar;C:\Users\Pintu\.m2\repository\org\checkerframework\checker-compat-qual\2.5.5\checker-compat-qual-2.5.5.jar;C:\Users\Pintu\.m2\repository\com\google\errorprone\error_prone_annotations\2.3.4\error_prone_annotations-2.3.4.jar;C:\Users\Pintu\.m2\repository\com\google\j2objc\j2objc-annotations\1.3\j2objc-annotations-1.3.jar;C:\Users\Pintu\.m2\repository\com\github\java-json-tools\jackson-coreutils-equivalence\1.0\jackson-coreutils-equivalence-1.0.jar;C:\Users\Pintu\.m2\repository\com\fasterxml\jackson\core\jackson-databind\2.11.0\jackson-databind-2.11.0.jar;C:\Users\Pintu\.m2\repository\com\fasterxml\jackson\core\jackson-annotations\2.11.0\jackson-annotations-2.11.0.jar;C:\Users\Pintu\.m2\repository\com\fasterxml\jackson\core\jackson-core\2.11.0\jackson-core-2.11.0.jar;C:\Users\Pintu\.m2\repository\com\github\java-json-tools\jackson-coreutils\2.0\jackson-coreutils-2.0.jar;C:\Users\Pintu\.m2\repository\com\github\java-json-tools\msg-simple\1.2\msg-simple-1.2.jar;C:\Users\Pintu\.m2\repository\com\github\java-json-tools\btf\1.3\btf-1.3.jar;C:\Users\Pintu\.m2\repository\com\github\java-json-tools\json-schema-core\1.2.14\json-schema-core-1.2.14.jar;C:\Users\Pintu\.m2\repository\com\github\java-json-tools\uri-template\0.10\uri-template-0.10.jar;C:\Users\Pintu\.m2\repository\org\mozilla\rhino\1.7.7.2\rhino-1.7.7.2.jar;C:\Users\Pintu\.m2\repository\com\sun\mail\mailapi\1.6.2\mailapi-1.6.2.jar;C:\Users\Pintu\.m2\repository\joda-time\joda-time\2.10.5\joda-time-2.10.5.jar;C:\Users\Pintu\.m2\repository\com\googlecode\libphonenumber\libphonenumber\8.11.1\libphonenumber-8.11.1.jar;C:\Users\Pintu\.m2\repository\com\google\code\findbugs\jsr305\3.0.2\jsr305-3.0.2.jar;C:\Users\Pintu\.m2\repository\net\sf\jopt-simple\jopt-simple\5.0.4\jopt-simple-5.0.4.jar;C:\Users\Pintu\.m2\repository\com\aventstack\extentreports\3.1.2\extentreports-3.1.2.jar;C:\Users\Pintu\.m2\repository\org\freemarker\freemarker\2.3.23\freemarker-2.3.23.jar;C:\Users\Pintu\.m2\repository\org\mongodb\mongodb-driver\3.3.0\mongodb-driver-3.3.0.jar;C:\Users\Pintu\.m2\repository\org\mongodb\bson\3.3.0\bson-3.3.0.jar;C:\Users\Pintu\.m2\repository\org\mongodb\mongodb-driver-core\3.3.0\mongodb-driver-core-3.3.0.jar;C:\Users\Pintu\.m2\repository\org\jsoup\jsoup\1.9.2\jsoup-1.9.2.jar;C:\Users\Pintu\.m2\repository\com\google\code\gson\gson\2.8.0\gson-2.8.0.jar;"/>
    <property name="sun.cpu.endian" value="little"/>
    <property name="user.home" value="C:\Users\Pintu"/>
    <property name="user.language" value="en"/>
    <property name="java.specification.vendor" value="Oracle Corporation"/>
    <property name="java.home" value="E:\Java\jdk1.8.0_241\jre"/>
    <property name="basedir" value="E:\Photo-Framework\API-Automation"/>
    <property name="file.separator" value="\"/>
    <property name="line.separator" value="&#10;"/>
    <property name="java.vm.specification.vendor" value="Oracle Corporation"/>
    <property name="java.specification.name" value="Java Platform API Specification"/>
    <property name="java.awt.graphicsenv" value="sun.awt.Win32GraphicsEnvironment"/>
    <property name="surefire.real.class.path" value="C:\Windows\Temp\surefire9131419753492834217\surefirebooter-20221019164921784_3.jar"/>
    <property name="sun.boot.class.path" value="E:\Java\jdk1.8.0_241\jre\lib\resources.jar;E:\Java\jdk1.8.0_241\jre\lib\rt.jar;E:\Java\jdk1.8.0_241\jre\lib\sunrsasign.jar;E:\Java\jdk1.8.0_241\jre\lib\jsse.jar;E:\Java\jdk1.8.0_241\jre\lib\jce.jar;E:\Java\jdk1.8.0_241\jre\lib\charsets.jar;E:\Java\jdk1.8.0_241\jre\lib\jfr.jar;E:\Java\jdk1.8.0_241\jre\classes"/>
    <property name="user.script" value=""/>
    <property name="sun.management.compiler" value="HotSpot 64-Bit Tiered Compilers"/>
    <property name="java.runtime.version" value="1.8.0_241-b07"/>
    <property name="user.name" value="Pintu"/>
    <property name="path.separator" value=";"/>
    <property name="os.version" value="6.1"/>
    <property name="java.endorsed.dirs" value="E:\Java\jdk1.8.0_241\jre\lib\endorsed"/>
    <property name="java.runtime.name" value="Java(TM) SE Runtime Environment"/>
    <property name="file.encoding" value="Cp1252"/>
    <property name="java.vm.name" value="Java HotSpot(TM) 64-Bit Server VM"/>
    <property name="localRepository" value="C:\Users\Pintu\.m2\repository"/>
    <property name="java.vendor.url.bug" value="http://bugreport.sun.com/bugreport/"/>
    <property name="java.io.tmpdir" value="C:\Windows\TEMP\"/>
    <property name="java.version" value="1.8.0_241"/>
    <property name="user.dir" value="E:\Photo-Framework\API-Automation"/>
    <property name="os.arch" value="amd64"/>
    <property name="java.vm.specification.name" value="Java Virtual Machine Specification"/>
    <property name="java.awt.printerjob" value="sun.awt.windows.WPrinterJob"/>
    <property name="sun.os.patch.level" value="Service Pack 1"/>
    <property name="java.library.path" value="E:\Java\jdk1.8.0_241\jre\bin;C:\Windows\Sun\Java\bin;C:\Windows\system32;C:\Windows;C:/Program Files/Java/jre1.8.0_241/bin/server;C:/Program Files/Java/jre1.8.0_241/bin;C:/Program Files/Java/jre1.8.0_241/lib/amd64;C:\apache-maven-3.8.6-bin\apache-maven-3.8.6\bin;C:\Python32;C:\Program Files\JetBrains\PyCharm Community Edition 2022.2.3\bin;;C:\Users\Pintu\Desktop;;."/>
    <property name="java.vm.info" value="mixed mode"/>
    <property name="java.vendor" value="Oracle Corporation"/>
    <property name="java.vm.version" value="25.241-b07"/>
    <property name="java.ext.dirs" value="E:\Java\jdk1.8.0_241\jre\lib\ext;C:\Windows\Sun\Java\lib\ext"/>
    <property name="sun.io.unicode.encoding" value="UnicodeLittle"/>
    <property name="java.class.version" value="52.0"/>
  </properties>
  <testcase name="ChecStatusLine" classname="ApiTestCases.TC1_GetUsers" time="0.012">
    <system-err><![CDATA[Oct 19, 2022 4:49:24 PM ApiTestCases.TC1_GetUsers GetUsers
INFO: TC1_GetUsers Test case to be executed
Oct 19, 2022 4:49:27 PM ApiTestCases.TC1_GetUsers ChecStatusLine
INFO: ***CheckStatusLine*****
Oct 19, 2022 4:49:27 PM ApiTestCases.TC1_GetUsers ChecStatusLine
INFO: Status Line==>HTTP/1.1 200 OK
]]></system-err>
  </testcase>
  <testcase name="CheckContentType" classname="ApiTestCases.TC1_GetUsers" time="0.019">
    <system-err><![CDATA[Oct 19, 2022 4:49:27 PM ApiTestCases.TC1_GetUsers CheckContentType
INFO: ***Check- Content-Type*****
Oct 19, 2022 4:49:27 PM ApiTestCases.TC1_GetUsers CheckContentType
INFO: Content Type==>application/json; charset=utf-8
]]></system-err>
  </testcase>
  <testcase name="CheckResponseBody" classname="ApiTestCases.TC1_GetUsers" time="0.024">
    <system-err><![CDATA[Oct 19, 2022 4:49:27 PM ApiTestCases.TC1_GetUsers CheckResponseBody
INFO: ****Checking ResponseBody****
Oct 19, 2022 4:49:27 PM ApiTestCases.TC1_GetUsers CheckResponseBody
INFO: Response Body==>{"page":2,"per_page":6,"total":12,"total_pages":2,"data":[{"id":7,"email":"michael.lawson@reqres.in","first_name":"Michael","last_name":"Lawson","avatar":"https://reqres.in/img/faces/7-image.jpg"},{"id":8,"email":"lindsay.ferguson@reqres.in","first_name":"Lindsay","last_name":"Ferguson","avatar":"https://reqres.in/img/faces/8-image.jpg"},{"id":9,"email":"tobias.funke@reqres.in","first_name":"Tobias","last_name":"Funke","avatar":"https://reqres.in/img/faces/9-image.jpg"},{"id":10,"email":"byron.fields@reqres.in","first_name":"Byron","last_name":"Fields","avatar":"https://reqres.in/img/faces/10-image.jpg"},{"id":11,"email":"george.edwards@reqres.in","first_name":"George","last_name":"Edwards","avatar":"https://reqres.in/img/faces/11-image.jpg"},{"id":12,"email":"rachel.howell@reqres.in","first_name":"Rachel","last_name":"Howell","avatar":"https://reqres.in/img/faces/12-image.jpg"}],"support":{"url":"https://reqres.in/#support-heading","text":"To keep ReqRes free, contributions towards server costs are appreciated!"}}
]]></system-err>
  </testcase>
  <testcase name="CheckResponseTime" classname="ApiTestCases.TC1_GetUsers" time="0.004">
    <system-err><![CDATA[Oct 19, 2022 4:49:27 PM ApiTestCases.TC1_GetUsers CheckResponseTime
INFO: ***CheckResponseTime*****
Oct 19, 2022 4:49:27 PM ApiTestCases.TC1_GetUsers CheckResponseTime
INFO: Response Time==>1505
]]></system-err>
  </testcase>
  <testcase name="CheckServerDetails" classname="ApiTestCases.TC1_GetUsers" time="0.004">
    <system-err><![CDATA[Oct 19, 2022 4:49:27 PM ApiTestCases.TC1_GetUsers CheckServerDetails
INFO: ***ServerDetails*****
Oct 19, 2022 4:49:27 PM ApiTestCases.TC1_GetUsers CheckServerDetails
INFO: Server Details==>cloudflare
]]></system-err>
  </testcase>
  <testcase name="CheckStatusCode" classname="ApiTestCases.TC1_GetUsers" time="0.006">
    <system-err><![CDATA[Oct 19, 2022 4:49:27 PM ApiTestCases.TC1_GetUsers CheckStatusCode
INFO: ***CheckingStatusCode*****
Oct 19, 2022 4:49:27 PM ApiTestCases.TC1_GetUsers CheckStatusCode
INFO: Status Code==>200
]]></system-err>
  </testcase>
  <testcase name="CheckTransferEncoding" classname="ApiTestCases.TC1_GetUsers" time="0.003">
    <system-err><![CDATA[Oct 19, 2022 4:49:27 PM ApiTestCases.TC1_GetUsers CheckTransferEncoding
INFO: ***CheckTransferEncoding*****
Oct 19, 2022 4:49:27 PM ApiTestCases.TC1_GetUsers CheckTransferEncoding
INFO: Transfer Encoding is==>chunked
]]></system-err>
  </testcase>
  <testcase name="verifyJsonBodyData" classname="ApiTestCases.TC1_GetUsers" time="1.604">
    <system-err><![CDATA[Oct 19, 2022 4:49:27 PM ApiTestCases.TC1_GetUsers verifyJsonBodyData
INFO: ** Verify the Data in Json Response*****
Oct 19, 2022 4:49:29 PM ApiTestCases.TC1_GetUsers verifyJsonBodyData
INFO: Email==>lindsay.ferguson@reqres.in
Oct 19, 2022 4:49:29 PM ApiTestCases.TC1_GetUsers verifyJsonBodyData
INFO: FirstName==>Lindsay
Oct 19, 2022 4:49:29 PM ApiTestCases.TC1_GetUsers verifyJsonBodyData
INFO: LastName==>Ferguson
Oct 19, 2022 4:49:29 PM ApiTestCases.TC1_GetUsers verifyJsonBodyData
INFO: AVATAR==>https://reqres.in/img/faces/8-image.jpg
]]></system-err>
  </testcase>
  <testcase name="ChecStatusLine" classname="ApiTestCases.TC2_GetSingleUser" time="0.003">
    <system-err><![CDATA[Oct 19, 2022 4:49:29 PM ApiTestCases.TC2_GetSingleUser GetUsers
INFO: TC2_GetSingleUser Test case to be executed
Oct 19, 2022 4:49:29 PM ApiTestCases.TC2_GetSingleUser ChecStatusLine
INFO: ***CheckStatusLine*****
Oct 19, 2022 4:49:29 PM ApiTestCases.TC2_GetSingleUser ChecStatusLine
INFO: Status Line==>HTTP/1.1 200 OK
]]></system-err>
  </testcase>
  <testcase name="CheckContentType" classname="ApiTestCases.TC2_GetSingleUser" time="0.035">
    <system-err><![CDATA[Oct 19, 2022 4:49:29 PM ApiTestCases.TC2_GetSingleUser CheckContentType
INFO: ***Check- Content-Type*****
Oct 19, 2022 4:49:29 PM ApiTestCases.TC2_GetSingleUser CheckContentType
INFO: Content Type==>application/json; charset=utf-8
]]></system-err>
  </testcase>
  <testcase name="CheckResponseBody" classname="ApiTestCases.TC2_GetSingleUser" time="0.001">
    <system-err><![CDATA[Oct 19, 2022 4:49:29 PM ApiTestCases.TC2_GetSingleUser CheckResponseBody
INFO: ****Checking ResponseBody****
Oct 19, 2022 4:49:29 PM ApiTestCases.TC2_GetSingleUser CheckResponseBody
INFO: Response Body==>{"data":{"id":2,"email":"janet.weaver@reqres.in","first_name":"Janet","last_name":"Weaver","avatar":"https://reqres.in/img/faces/2-image.jpg"},"support":{"url":"https://reqres.in/#support-heading","text":"To keep ReqRes free, contributions towards server costs are appreciated!"}}
]]></system-err>
  </testcase>
  <testcase name="CheckResponseTime" classname="ApiTestCases.TC2_GetSingleUser" time="0.001">
    <system-err><![CDATA[Oct 19, 2022 4:49:29 PM ApiTestCases.TC2_GetSingleUser CheckResponseTime
INFO: ***CheckResponseTime*****
Oct 19, 2022 4:49:29 PM ApiTestCases.TC2_GetSingleUser CheckResponseTime
INFO: Response Time==>87
]]></system-err>
  </testcase>
  <testcase name="CheckServerDetails" classname="ApiTestCases.TC2_GetSingleUser" time="0.04">
    <system-err><![CDATA[Oct 19, 2022 4:49:29 PM ApiTestCases.TC2_GetSingleUser CheckServerDetails
INFO: ***ServerDetails*****
Oct 19, 2022 4:49:29 PM ApiTestCases.TC2_GetSingleUser CheckServerDetails
INFO: Server Details==>cloudflare
]]></system-err>
  </testcase>
  <testcase name="CheckStatusCode" classname="ApiTestCases.TC2_GetSingleUser" time="0.001">
    <system-err><![CDATA[Oct 19, 2022 4:49:29 PM ApiTestCases.TC2_GetSingleUser CheckStatusCode
INFO: ***CheckingStatusCode*****
Oct 19, 2022 4:49:29 PM ApiTestCases.TC2_GetSingleUser CheckStatusCode
INFO: Status Code==>200
]]></system-err>
  </testcase>
  <testcase name="CheckTransferEncoding" classname="ApiTestCases.TC2_GetSingleUser" time="0">
    <system-err><![CDATA[Oct 19, 2022 4:49:29 PM ApiTestCases.TC2_GetSingleUser CheckTransferEncoding
INFO: ***CheckTransferEncoding*****
Oct 19, 2022 4:49:29 PM ApiTestCases.TC2_GetSingleUser CheckTransferEncoding
INFO: Transfer Encoding is==>chunked
]]></system-err>
  </testcase>
  <testcase name="verifyJsonBodyData" classname="ApiTestCases.TC2_GetSingleUser" time="0.174">
    <system-err><![CDATA[Oct 19, 2022 4:49:29 PM ApiTestCases.TC2_GetSingleUser verifyJsonBodyData
INFO: ** Verify the Data in Json Response*****
Oct 19, 2022 4:49:29 PM ApiTestCases.TC2_GetSingleUser verifyJsonBodyData
INFO: UserID==>2
Oct 19, 2022 4:49:29 PM ApiTestCases.TC2_GetSingleUser verifyJsonBodyData
INFO: Email==>janet.weaver@reqres.in
Oct 19, 2022 4:49:29 PM ApiTestCases.TC2_GetSingleUser verifyJsonBodyData
INFO: FirstName==>Janet
Oct 19, 2022 4:49:29 PM ApiTestCases.TC2_GetSingleUser verifyJsonBodyData
INFO: LastName==>Weaver
Oct 19, 2022 4:49:29 PM ApiTestCases.TC2_GetSingleUser verifyJsonBodyData
INFO: AVATAR==>https://reqres.in/img/faces/2-image.jpg
]]></system-err>
  </testcase>
  <testcase name="CheckResponseBody" classname="ApiTestCases.TC3_SingleUserNotFound" time="0.002">
    <system-err><![CDATA[Oct 19, 2022 4:49:29 PM ApiTestCases.TC3_SingleUserNotFound GetUsers
INFO: TC3_SingleUserNotFound Test case to be executed
Oct 19, 2022 4:49:30 PM ApiTestCases.TC3_SingleUserNotFound CheckResponseBody
INFO: ****Checking ResponseBody****
Oct 19, 2022 4:49:30 PM ApiTestCases.TC3_SingleUserNotFound CheckResponseBody
INFO: Response Body==>{}
]]></system-err>
  </testcase>
  <testcase name="CheckStatusCode" classname="ApiTestCases.TC3_SingleUserNotFound" time="0.001">
    <system-err><![CDATA[Oct 19, 2022 4:49:30 PM ApiTestCases.TC3_SingleUserNotFound CheckStatusCode
INFO: ***CheckingStatusCode*****
Oct 19, 2022 4:49:30 PM ApiTestCases.TC3_SingleUserNotFound CheckStatusCode
INFO: Status Code==>404
]]></system-err>
  </testcase>
  <testcase name="ChecStatusLine" classname="ApiTestCases.TC4_CreateNewUser" time="0.002">
    <system-err><![CDATA[Oct 19, 2022 4:49:30 PM ApiTestCases.TC4_CreateNewUser GetUsers
INFO: TC4_CreateNewUser Test case to be executed
Oct 19, 2022 4:49:30 PM ApiTestCases.TC4_CreateNewUser ChecStatusLine
INFO: ***CheckStatusLine*****
Oct 19, 2022 4:49:30 PM ApiTestCases.TC4_CreateNewUser ChecStatusLine
INFO: Status Line==>HTTP/1.1 201 Created
]]></system-err>
  </testcase>
  <testcase name="CheckContentType" classname="ApiTestCases.TC4_CreateNewUser" time="0.031">
    <system-err><![CDATA[Oct 19, 2022 4:49:30 PM ApiTestCases.TC4_CreateNewUser CheckContentType
INFO: ***Check- Content-Type*****
Oct 19, 2022 4:49:30 PM ApiTestCases.TC4_CreateNewUser CheckContentType
INFO: Content Type==>application/json; charset=utf-8
]]></system-err>
  </testcase>
  <testcase name="CheckResponseBody" classname="ApiTestCases.TC4_CreateNewUser" time="0.024">
    <system-err><![CDATA[Oct 19, 2022 4:49:30 PM ApiTestCases.TC4_CreateNewUser CheckResponseBody
INFO: ****Checking ResponseBody****
Oct 19, 2022 4:49:30 PM ApiTestCases.TC4_CreateNewUser CheckResponseBody
INFO: Response Body==>{"name":"ApiRestntU","job":"ApiRestLeaderby","id":"271","createdAt":"2022-10-19T11:19:33.269Z"}
]]></system-err>
  </testcase>
  <testcase name="CheckResponseTime" classname="ApiTestCases.TC4_CreateNewUser" time="0.001">
    <system-err><![CDATA[Oct 19, 2022 4:49:30 PM ApiTestCases.TC4_CreateNewUser CheckResponseTime
INFO: ***CheckResponseTime*****
Oct 19, 2022 4:49:30 PM ApiTestCases.TC4_CreateNewUser CheckResponseTime
INFO: Response Time==>439
]]></system-err>
  </testcase>
  <testcase name="CheckServerDetails" classname="ApiTestCases.TC4_CreateNewUser" time="0.001">
    <system-err><![CDATA[Oct 19, 2022 4:49:30 PM ApiTestCases.TC4_CreateNewUser CheckServerDetails
INFO: ***ServerDetails*****
Oct 19, 2022 4:49:30 PM ApiTestCases.TC4_CreateNewUser CheckServerDetails
INFO: Server Details==>cloudflare
]]></system-err>
  </testcase>
  <testcase name="CheckStatusCode" classname="ApiTestCases.TC4_CreateNewUser" time="0">
    <system-err><![CDATA[Oct 19, 2022 4:49:30 PM ApiTestCases.TC4_CreateNewUser CheckStatusCode
INFO: ***CheckingStatusCode*****
Oct 19, 2022 4:49:30 PM ApiTestCases.TC4_CreateNewUser CheckStatusCode
INFO: Status Code==>201
]]></system-err>
  </testcase>
</testsuite>